{
    "data": [
        {
            "id": 16,
            "ip": "172.23.0.1",
            "port": "",
            "location": "局域网-",
            "result": "success",
            "time_consuming": 51,
            "user_id": 1,
            "created_at": "2022-09-05 22:26",
            "operate": "delete",
            "message": "敏感词汇分类，以及分类下的敏感词删除成功",
            "resultText": "成功",
            "user": {
                "id": 1,
                "name": "Master",
                "avatar": "https://www.blog1997.com/image/avatar/2021-10-06/449.97207100163615dc2d4ed5358.62463263.jpg"
            }
        },
        {
            "id": 15,
            "ip": "172.18.0.1",
            "port": "",
            "location": "局域网-",
            "result": "success",
            "time_consuming": 1674,
            "user_id": 2,
            "created_at": "2021-10-11 22:31",
            "operate": "create",
            "message": "评论成功",
            "resultText": "成功",
            "user": {
                "id": 2,
                "name": "阿呆",
                "avatar": ""
            }
        },
        {
            "id": 14,
            "ip": "172.18.0.1",
            "port": "",
            "location": "局域网-",
            "result": "success",
            "time_consuming": 1903,
            "user_id": 2,
            "created_at": "2021-10-11 22:30",
            "operate": "create",
            "message": "评论成功",
            "resultText": "成功",
            "user": {
                "id": 2,
                "name": "阿呆",
                "avatar": ""
            }
        },
        {
            "id": 13,
            "ip": "172.18.0.1",
            "port": "",
            "location": "局域网-",
            "result": "success",
            "time_consuming": 1094,
            "user_id": 2,
            "created_at": "2021-10-11 22:14",
            "operate": "create",
            "message": "评论成功",
            "resultText": "成功",
            "user": {
                "id": 2,
                "name": "阿呆",
                "avatar": ""
            }
        },
        {
            "id": 12,
            "ip": "172.18.0.1",
            "port": "",
            "location": "局域网-",
            "result": "success",
            "time_consuming": 1097,
            "user_id": 2,
            "created_at": "2021-10-11 22:13",
            "operate": "create",
            "message": "评论成功",
            "resultText": "成功",
            "user": {
                "id": 2,
                "name": "阿呆",
                "avatar": ""
            }
        },
        {
            "id": 11,
            "ip": "172.18.0.1",
            "port": "",
            "location": "局域网-",
            "result": "success",
            "time_consuming": 1998,
            "user_id": 2,
            "created_at": "2021-10-11 22:13",
            "operate": "create",
            "message": "评论成功",
            "resultText": "成功",
            "user": {
                "id": 2,
                "name": "阿呆",
                "avatar": ""
            }
        },
        {
            "id": 10,
            "ip": "172.18.0.1",
            "port": "",
            "location": "局域网-",
            "result": "success",
            "time_consuming": 1933,
            "user_id": 2,
            "created_at": "2021-10-11 21:59",
            "operate": "create",
            "message": "评论成功",
            "resultText": "成功",
            "user": {
                "id": 2,
                "name": "阿呆",
                "avatar": ""
            }
        },
        {
            "id": 9,
            "ip": "172.18.0.1",
            "port": "",
            "location": "局域网-",
            "result": "success",
            "time_consuming": 1466,
            "user_id": 2,
            "created_at": "2021-10-11 21:57",
            "operate": "create",
            "message": "评论成功",
            "resultText": "成功",
            "user": {
                "id": 2,
                "name": "阿呆",
                "avatar": ""
            }
        },
        {
            "id": 8,
            "ip": "172.18.0.1",
            "port": "",
            "location": "局域网-",
            "result": "success",
            "time_consuming": 1358,
            "user_id": 1,
            "created_at": "2021-10-11 19:02",
            "operate": "create",
            "message": "评论成功",
            "resultText": "成功",
            "user": {
                "id": 1,
                "name": "Master",
                "avatar": "https://www.blog1997.com/image/avatar/2021-10-06/449.97207100163615dc2d4ed5358.62463263.jpg"
            }
        },
        {
            "id": 7,
            "ip": "172.18.0.1",
            "port": "",
            "location": "局域网-",
            "result": "success",
            "time_consuming": 1567,
            "user_id": 1,
            "created_at": "2021-10-11 18:43",
            "operate": "create",
            "message": "评论成功",
            "resultText": "成功",
            "user": {
                "id": 1,
                "name": "Master",
                "avatar": "https://www.blog1997.com/image/avatar/2021-10-06/449.97207100163615dc2d4ed5358.62463263.jpg"
            }
        }
    ],
    "links": {
        "first": "https://www.blog1997.com/api/admin/log?page=1",
        "last": "https://www.blog1997.com/api/admin/log?page=2",
        "prev": null,
        "next": "https://www.blog1997.com/api/admin/log?page=2"
    },
    "meta": {
        "current_page": 1,
        "from": 1,
        "last_page": 2,
        "path": "https://www.blog1997.com/api/admin/log",
        "per_page": 10,
        "to": 10,
        "total": 15
    },
    "message": "success"
}